
C:\Works\Windows\misc\practise\NwayCache\Debug>NwayCache.exe

 Cache has been allocated at : 002D65C8
 The Required Adress is 002D65C8, was: CDCDCDCD
 So , for the instance count of 0, we will have like 4 cache elements
 At Adress 002D65C8, now is: 002D43E8
 [ 0 ] |
 [ 1 ] |
 [ 2 ] |
 [ 3 ] |
 The Required Adress is 002D65CC, was: CDCDCDCD
 So , for the instance count of 1, we will have like 16 cache elements
 At Adress 002D65CC, now is: 002D4708
 [ 0 ] | [ 0 ] |
 [ 1 ] | [ 0 ] |
 [ 2 ] | [ 0 ] |
 [ 3 ] | [ 0 ] |
 [ 0 ] | [ 1 ] |
 [ 1 ] | [ 1 ] |
 [ 2 ] | [ 1 ] |
 [ 3 ] | [ 1 ] |
 [ 0 ] | [ 2 ] |
 [ 1 ] | [ 2 ] |
 [ 2 ] | [ 2 ] |
 [ 3 ] | [ 2 ] |
 [ 0 ] | [ 3 ] |
 [ 1 ] | [ 3 ] |
 [ 2 ] | [ 3 ] |
 [ 3 ] | [ 3 ] |
 The Required Adress is 002D65D0, was: CDCDCDCD
 So , for the instance count of 2, we will have like 64 cache elements
 At Adress 002D65D0, now is: 002DAB28
 [ 0 ] | [ 0 ] | [ 0 ] |
 [ 1 ] | [ 0 ] | [ 0 ] |
 [ 2 ] | [ 0 ] | [ 0 ] |
 [ 3 ] | [ 0 ] | [ 0 ] |
 [ 0 ] | [ 1 ] | [ 0 ] |
 [ 1 ] | [ 1 ] | [ 0 ] |
 [ 2 ] | [ 1 ] | [ 0 ] |
 [ 3 ] | [ 1 ] | [ 0 ] |
 [ 0 ] | [ 2 ] | [ 0 ] |
 [ 1 ] | [ 2 ] | [ 0 ] |
 [ 2 ] | [ 2 ] | [ 0 ] |
 [ 3 ] | [ 2 ] | [ 0 ] |
 [ 0 ] | [ 3 ] | [ 0 ] |
 [ 1 ] | [ 3 ] | [ 0 ] |
 [ 2 ] | [ 3 ] | [ 0 ] |
 [ 3 ] | [ 3 ] | [ 0 ] |
 [ 0 ] | [ 0 ] | [ 1 ] |
 [ 1 ] | [ 0 ] | [ 1 ] |
 [ 2 ] | [ 0 ] | [ 1 ] |
 [ 3 ] | [ 0 ] | [ 1 ] |
 [ 0 ] | [ 1 ] | [ 1 ] |
 [ 1 ] | [ 1 ] | [ 1 ] |
 [ 2 ] | [ 1 ] | [ 1 ] |
 [ 3 ] | [ 1 ] | [ 1 ] |
 [ 0 ] | [ 2 ] | [ 1 ] |
 [ 1 ] | [ 2 ] | [ 1 ] |
 [ 2 ] | [ 2 ] | [ 1 ] |
 [ 3 ] | [ 2 ] | [ 1 ] |
 [ 0 ] | [ 3 ] | [ 1 ] |
 [ 1 ] | [ 3 ] | [ 1 ] |
 [ 2 ] | [ 3 ] | [ 1 ] |
 [ 3 ] | [ 3 ] | [ 1 ] |
 [ 0 ] | [ 0 ] | [ 2 ] |
 [ 1 ] | [ 0 ] | [ 2 ] |
 [ 2 ] | [ 0 ] | [ 2 ] |
 [ 3 ] | [ 0 ] | [ 2 ] |
 [ 0 ] | [ 1 ] | [ 2 ] |
 [ 1 ] | [ 1 ] | [ 2 ] |
 [ 2 ] | [ 1 ] | [ 2 ] |
 [ 3 ] | [ 1 ] | [ 2 ] |
 [ 0 ] | [ 2 ] | [ 2 ] |
 [ 1 ] | [ 2 ] | [ 2 ] |
 [ 2 ] | [ 2 ] | [ 2 ] |
 [ 3 ] | [ 2 ] | [ 2 ] |
 [ 0 ] | [ 3 ] | [ 2 ] |
 [ 1 ] | [ 3 ] | [ 2 ] |
 [ 2 ] | [ 3 ] | [ 2 ] |
 [ 3 ] | [ 3 ] | [ 2 ] |
 [ 0 ] | [ 0 ] | [ 3 ] |
 [ 1 ] | [ 0 ] | [ 3 ] |
 [ 2 ] | [ 0 ] | [ 3 ] |
 [ 3 ] | [ 0 ] | [ 3 ] |
 [ 0 ] | [ 1 ] | [ 3 ] |
 [ 1 ] | [ 1 ] | [ 3 ] |
 [ 2 ] | [ 1 ] | [ 3 ] |
 [ 3 ] | [ 1 ] | [ 3 ] |
 [ 0 ] | [ 2 ] | [ 3 ] |
 [ 1 ] | [ 2 ] | [ 3 ] |
 [ 2 ] | [ 2 ] | [ 3 ] |
 [ 3 ] | [ 2 ] | [ 3 ] |
 [ 0 ] | [ 3 ] | [ 3 ] |
 [ 1 ] | [ 3 ] | [ 3 ] |
 [ 2 ] | [ 3 ] | [ 3 ] |
 [ 3 ] | [ 3 ] | [ 3 ] |
 The Required Adress is 002D65D4, was: CDCDCDCD
 So , for the instance count of 3, we will have like 256 cache elements
 At Adress 002D65D4, now is: 002DDE98
 [ 0 ] | [ 0 ] | [ 0 ] | [ 0 ] |
 [ 1 ] | [ 0 ] | [ 0 ] | [ 0 ] |
 [ 2 ] | [ 0 ] | [ 0 ] | [ 0 ] |
 [ 3 ] | [ 0 ] | [ 0 ] | [ 0 ] |
 [ 0 ] | [ 1 ] | [ 0 ] | [ 0 ] |
 [ 1 ] | [ 1 ] | [ 0 ] | [ 0 ] |
 [ 2 ] | [ 1 ] | [ 0 ] | [ 0 ] |
 [ 3 ] | [ 1 ] | [ 0 ] | [ 0 ] |
 [ 0 ] | [ 2 ] | [ 0 ] | [ 0 ] |
 [ 1 ] | [ 2 ] | [ 0 ] | [ 0 ] |
 [ 2 ] | [ 2 ] | [ 0 ] | [ 0 ] |
 [ 3 ] | [ 2 ] | [ 0 ] | [ 0 ] |
 [ 0 ] | [ 3 ] | [ 0 ] | [ 0 ] |
 [ 1 ] | [ 3 ] | [ 0 ] | [ 0 ] |
 [ 2 ] | [ 3 ] | [ 0 ] | [ 0 ] |
 [ 3 ] | [ 3 ] | [ 0 ] | [ 0 ] |
 [ 0 ] | [ 0 ] | [ 1 ] | [ 0 ] |
 [ 1 ] | [ 0 ] | [ 1 ] | [ 0 ] |
 [ 2 ] | [ 0 ] | [ 1 ] | [ 0 ] |
 [ 3 ] | [ 0 ] | [ 1 ] | [ 0 ] |
 [ 0 ] | [ 1 ] | [ 1 ] | [ 0 ] |
 [ 1 ] | [ 1 ] | [ 1 ] | [ 0 ] |
 [ 2 ] | [ 1 ] | [ 1 ] | [ 0 ] |
 [ 3 ] | [ 1 ] | [ 1 ] | [ 0 ] |
 [ 0 ] | [ 2 ] | [ 1 ] | [ 0 ] |
 [ 1 ] | [ 2 ] | [ 1 ] | [ 0 ] |
 [ 2 ] | [ 2 ] | [ 1 ] | [ 0 ] |
 [ 3 ] | [ 2 ] | [ 1 ] | [ 0 ] |
 [ 0 ] | [ 3 ] | [ 1 ] | [ 0 ] |
 [ 1 ] | [ 3 ] | [ 1 ] | [ 0 ] |
 [ 2 ] | [ 3 ] | [ 1 ] | [ 0 ] |
 [ 3 ] | [ 3 ] | [ 1 ] | [ 0 ] |
 [ 0 ] | [ 0 ] | [ 2 ] | [ 0 ] |
 [ 1 ] | [ 0 ] | [ 2 ] | [ 0 ] |
 [ 2 ] | [ 0 ] | [ 2 ] | [ 0 ] |
 [ 3 ] | [ 0 ] | [ 2 ] | [ 0 ] |
 [ 0 ] | [ 1 ] | [ 2 ] | [ 0 ] |
 [ 1 ] | [ 1 ] | [ 2 ] | [ 0 ] |
 [ 2 ] | [ 1 ] | [ 2 ] | [ 0 ] |
 [ 3 ] | [ 1 ] | [ 2 ] | [ 0 ] |
 [ 0 ] | [ 2 ] | [ 2 ] | [ 0 ] |
 [ 1 ] | [ 2 ] | [ 2 ] | [ 0 ] |
 [ 2 ] | [ 2 ] | [ 2 ] | [ 0 ] |
 [ 3 ] | [ 2 ] | [ 2 ] | [ 0 ] |
 [ 0 ] | [ 3 ] | [ 2 ] | [ 0 ] |
 [ 1 ] | [ 3 ] | [ 2 ] | [ 0 ] |
 [ 2 ] | [ 3 ] | [ 2 ] | [ 0 ] |
 [ 3 ] | [ 3 ] | [ 2 ] | [ 0 ] |
 [ 0 ] | [ 0 ] | [ 3 ] | [ 0 ] |
 [ 1 ] | [ 0 ] | [ 3 ] | [ 0 ] |
 [ 2 ] | [ 0 ] | [ 3 ] | [ 0 ] |
 [ 3 ] | [ 0 ] | [ 3 ] | [ 0 ] |
 [ 0 ] | [ 1 ] | [ 3 ] | [ 0 ] |
 [ 1 ] | [ 1 ] | [ 3 ] | [ 0 ] |
 [ 2 ] | [ 1 ] | [ 3 ] | [ 0 ] |
 [ 3 ] | [ 1 ] | [ 3 ] | [ 0 ] |
 [ 0 ] | [ 2 ] | [ 3 ] | [ 0 ] |
 [ 1 ] | [ 2 ] | [ 3 ] | [ 0 ] |
 [ 2 ] | [ 2 ] | [ 3 ] | [ 0 ] |
 [ 3 ] | [ 2 ] | [ 3 ] | [ 0 ] |
 [ 0 ] | [ 3 ] | [ 3 ] | [ 0 ] |
 [ 1 ] | [ 3 ] | [ 3 ] | [ 0 ] |
 [ 2 ] | [ 3 ] | [ 3 ] | [ 0 ] |
 [ 3 ] | [ 3 ] | [ 3 ] | [ 0 ] |
 [ 0 ] | [ 0 ] | [ 0 ] | [ 1 ] |
 [ 1 ] | [ 0 ] | [ 0 ] | [ 1 ] |
 [ 2 ] | [ 0 ] | [ 0 ] | [ 1 ] |
 [ 3 ] | [ 0 ] | [ 0 ] | [ 1 ] |
 [ 0 ] | [ 1 ] | [ 0 ] | [ 1 ] |
 [ 1 ] | [ 1 ] | [ 0 ] | [ 1 ] |
 [ 2 ] | [ 1 ] | [ 0 ] | [ 1 ] |
 [ 3 ] | [ 1 ] | [ 0 ] | [ 1 ] |
 [ 0 ] | [ 2 ] | [ 0 ] | [ 1 ] |
 [ 1 ] | [ 2 ] | [ 0 ] | [ 1 ] |
 [ 2 ] | [ 2 ] | [ 0 ] | [ 1 ] |
 [ 3 ] | [ 2 ] | [ 0 ] | [ 1 ] |
 [ 0 ] | [ 3 ] | [ 0 ] | [ 1 ] |
 [ 1 ] | [ 3 ] | [ 0 ] | [ 1 ] |
 [ 2 ] | [ 3 ] | [ 0 ] | [ 1 ] |
 [ 3 ] | [ 3 ] | [ 0 ] | [ 1 ] |
 [ 0 ] | [ 0 ] | [ 1 ] | [ 1 ] |
 [ 1 ] | [ 0 ] | [ 1 ] | [ 1 ] |
 [ 2 ] | [ 0 ] | [ 1 ] | [ 1 ] |
 [ 3 ] | [ 0 ] | [ 1 ] | [ 1 ] |
 [ 0 ] | [ 1 ] | [ 1 ] | [ 1 ] |
 [ 1 ] | [ 1 ] | [ 1 ] | [ 1 ] |
 [ 2 ] | [ 1 ] | [ 1 ] | [ 1 ] |
 [ 3 ] | [ 1 ] | [ 1 ] | [ 1 ] |
 [ 0 ] | [ 2 ] | [ 1 ] | [ 1 ] |
 [ 1 ] | [ 2 ] | [ 1 ] | [ 1 ] |
 [ 2 ] | [ 2 ] | [ 1 ] | [ 1 ] |
 [ 3 ] | [ 2 ] | [ 1 ] | [ 1 ] |
 [ 0 ] | [ 3 ] | [ 1 ] | [ 1 ] |
 [ 1 ] | [ 3 ] | [ 1 ] | [ 1 ] |
 [ 2 ] | [ 3 ] | [ 1 ] | [ 1 ] |
 [ 3 ] | [ 3 ] | [ 1 ] | [ 1 ] |
 [ 0 ] | [ 0 ] | [ 2 ] | [ 1 ] |
 [ 1 ] | [ 0 ] | [ 2 ] | [ 1 ] |
 [ 2 ] | [ 0 ] | [ 2 ] | [ 1 ] |
 [ 3 ] | [ 0 ] | [ 2 ] | [ 1 ] |
 [ 0 ] | [ 1 ] | [ 2 ] | [ 1 ] |
 [ 1 ] | [ 1 ] | [ 2 ] | [ 1 ] |
 [ 2 ] | [ 1 ] | [ 2 ] | [ 1 ] |
 [ 3 ] | [ 1 ] | [ 2 ] | [ 1 ] |
 [ 0 ] | [ 2 ] | [ 2 ] | [ 1 ] |
 [ 1 ] | [ 2 ] | [ 2 ] | [ 1 ] |
 [ 2 ] | [ 2 ] | [ 2 ] | [ 1 ] |
 [ 3 ] | [ 2 ] | [ 2 ] | [ 1 ] |
 [ 0 ] | [ 3 ] | [ 2 ] | [ 1 ] |
 [ 1 ] | [ 3 ] | [ 2 ] | [ 1 ] |
 [ 2 ] | [ 3 ] | [ 2 ] | [ 1 ] |
 [ 3 ] | [ 3 ] | [ 2 ] | [ 1 ] |
 [ 0 ] | [ 0 ] | [ 3 ] | [ 1 ] |
 [ 1 ] | [ 0 ] | [ 3 ] | [ 1 ] |
 [ 2 ] | [ 0 ] | [ 3 ] | [ 1 ] |
 [ 3 ] | [ 0 ] | [ 3 ] | [ 1 ] |
 [ 0 ] | [ 1 ] | [ 3 ] | [ 1 ] |
 [ 1 ] | [ 1 ] | [ 3 ] | [ 1 ] |
 [ 2 ] | [ 1 ] | [ 3 ] | [ 1 ] |
 [ 3 ] | [ 1 ] | [ 3 ] | [ 1 ] |
 [ 0 ] | [ 2 ] | [ 3 ] | [ 1 ] |
 [ 1 ] | [ 2 ] | [ 3 ] | [ 1 ] |
 [ 2 ] | [ 2 ] | [ 3 ] | [ 1 ] |
 [ 3 ] | [ 2 ] | [ 3 ] | [ 1 ] |
 [ 0 ] | [ 3 ] | [ 3 ] | [ 1 ] |
 [ 1 ] | [ 3 ] | [ 3 ] | [ 1 ] |
 [ 2 ] | [ 3 ] | [ 3 ] | [ 1 ] |
 [ 3 ] | [ 3 ] | [ 3 ] | [ 1 ] |
 [ 0 ] | [ 0 ] | [ 0 ] | [ 2 ] |
 [ 1 ] | [ 0 ] | [ 0 ] | [ 2 ] |
 [ 2 ] | [ 0 ] | [ 0 ] | [ 2 ] |
 [ 3 ] | [ 0 ] | [ 0 ] | [ 2 ] |
 [ 0 ] | [ 1 ] | [ 0 ] | [ 2 ] |
 [ 1 ] | [ 1 ] | [ 0 ] | [ 2 ] |
 [ 2 ] | [ 1 ] | [ 0 ] | [ 2 ] |
 [ 3 ] | [ 1 ] | [ 0 ] | [ 2 ] |
 [ 0 ] | [ 2 ] | [ 0 ] | [ 2 ] |
 [ 1 ] | [ 2 ] | [ 0 ] | [ 2 ] |
 [ 2 ] | [ 2 ] | [ 0 ] | [ 2 ] |
 [ 3 ] | [ 2 ] | [ 0 ] | [ 2 ] |
 [ 0 ] | [ 3 ] | [ 0 ] | [ 2 ] |
 [ 1 ] | [ 3 ] | [ 0 ] | [ 2 ] |
 [ 2 ] | [ 3 ] | [ 0 ] | [ 2 ] |
 [ 3 ] | [ 3 ] | [ 0 ] | [ 2 ] |
 [ 0 ] | [ 0 ] | [ 1 ] | [ 2 ] |
 [ 1 ] | [ 0 ] | [ 1 ] | [ 2 ] |
 [ 2 ] | [ 0 ] | [ 1 ] | [ 2 ] |
 [ 3 ] | [ 0 ] | [ 1 ] | [ 2 ] |
 [ 0 ] | [ 1 ] | [ 1 ] | [ 2 ] |
 [ 1 ] | [ 1 ] | [ 1 ] | [ 2 ] |
 [ 2 ] | [ 1 ] | [ 1 ] | [ 2 ] |
 [ 3 ] | [ 1 ] | [ 1 ] | [ 2 ] |
 [ 0 ] | [ 2 ] | [ 1 ] | [ 2 ] |
 [ 1 ] | [ 2 ] | [ 1 ] | [ 2 ] |
 [ 2 ] | [ 2 ] | [ 1 ] | [ 2 ] |
 [ 3 ] | [ 2 ] | [ 1 ] | [ 2 ] |
 [ 0 ] | [ 3 ] | [ 1 ] | [ 2 ] |
 [ 1 ] | [ 3 ] | [ 1 ] | [ 2 ] |
 [ 2 ] | [ 3 ] | [ 1 ] | [ 2 ] |
 [ 3 ] | [ 3 ] | [ 1 ] | [ 2 ] |
 [ 0 ] | [ 0 ] | [ 2 ] | [ 2 ] |
 [ 1 ] | [ 0 ] | [ 2 ] | [ 2 ] |
 [ 2 ] | [ 0 ] | [ 2 ] | [ 2 ] |
 [ 3 ] | [ 0 ] | [ 2 ] | [ 2 ] |
 [ 0 ] | [ 1 ] | [ 2 ] | [ 2 ] |
 [ 1 ] | [ 1 ] | [ 2 ] | [ 2 ] |
 [ 2 ] | [ 1 ] | [ 2 ] | [ 2 ] |
 [ 3 ] | [ 1 ] | [ 2 ] | [ 2 ] |
 [ 0 ] | [ 2 ] | [ 2 ] | [ 2 ] |
 [ 1 ] | [ 2 ] | [ 2 ] | [ 2 ] |
 [ 2 ] | [ 2 ] | [ 2 ] | [ 2 ] |
 [ 3 ] | [ 2 ] | [ 2 ] | [ 2 ] |
 [ 0 ] | [ 3 ] | [ 2 ] | [ 2 ] |
 [ 1 ] | [ 3 ] | [ 2 ] | [ 2 ] |
 [ 2 ] | [ 3 ] | [ 2 ] | [ 2 ] |
 [ 3 ] | [ 3 ] | [ 2 ] | [ 2 ] |
 [ 0 ] | [ 0 ] | [ 3 ] | [ 2 ] |
 [ 1 ] | [ 0 ] | [ 3 ] | [ 2 ] |
 [ 2 ] | [ 0 ] | [ 3 ] | [ 2 ] |
 [ 3 ] | [ 0 ] | [ 3 ] | [ 2 ] |
 [ 0 ] | [ 1 ] | [ 3 ] | [ 2 ] |
 [ 1 ] | [ 1 ] | [ 3 ] | [ 2 ] |
 [ 2 ] | [ 1 ] | [ 3 ] | [ 2 ] |
 [ 3 ] | [ 1 ] | [ 3 ] | [ 2 ] |
 [ 0 ] | [ 2 ] | [ 3 ] | [ 2 ] |
 [ 1 ] | [ 2 ] | [ 3 ] | [ 2 ] |
 [ 2 ] | [ 2 ] | [ 3 ] | [ 2 ] |
 [ 3 ] | [ 2 ] | [ 3 ] | [ 2 ] |
 [ 0 ] | [ 3 ] | [ 3 ] | [ 2 ] |
 [ 1 ] | [ 3 ] | [ 3 ] | [ 2 ] |
 [ 2 ] | [ 3 ] | [ 3 ] | [ 2 ] |
 [ 3 ] | [ 3 ] | [ 3 ] | [ 2 ] |
 [ 0 ] | [ 0 ] | [ 0 ] | [ 3 ] |
 [ 1 ] | [ 0 ] | [ 0 ] | [ 3 ] |
 [ 2 ] | [ 0 ] | [ 0 ] | [ 3 ] |
 [ 3 ] | [ 0 ] | [ 0 ] | [ 3 ] |
 [ 0 ] | [ 1 ] | [ 0 ] | [ 3 ] |
 [ 1 ] | [ 1 ] | [ 0 ] | [ 3 ] |
 [ 2 ] | [ 1 ] | [ 0 ] | [ 3 ] |
 [ 3 ] | [ 1 ] | [ 0 ] | [ 3 ] |
 [ 0 ] | [ 2 ] | [ 0 ] | [ 3 ] |
 [ 1 ] | [ 2 ] | [ 0 ] | [ 3 ] |
 [ 2 ] | [ 2 ] | [ 0 ] | [ 3 ] |
 [ 3 ] | [ 2 ] | [ 0 ] | [ 3 ] |
 [ 0 ] | [ 3 ] | [ 0 ] | [ 3 ] |
 [ 1 ] | [ 3 ] | [ 0 ] | [ 3 ] |
 [ 2 ] | [ 3 ] | [ 0 ] | [ 3 ] |
 [ 3 ] | [ 3 ] | [ 0 ] | [ 3 ] |
 [ 0 ] | [ 0 ] | [ 1 ] | [ 3 ] |
 [ 1 ] | [ 0 ] | [ 1 ] | [ 3 ] |
 [ 2 ] | [ 0 ] | [ 1 ] | [ 3 ] |
 [ 3 ] | [ 0 ] | [ 1 ] | [ 3 ] |
 [ 0 ] | [ 1 ] | [ 1 ] | [ 3 ] |
 [ 1 ] | [ 1 ] | [ 1 ] | [ 3 ] |
 [ 2 ] | [ 1 ] | [ 1 ] | [ 3 ] |
 [ 3 ] | [ 1 ] | [ 1 ] | [ 3 ] |
 [ 0 ] | [ 2 ] | [ 1 ] | [ 3 ] |
 [ 1 ] | [ 2 ] | [ 1 ] | [ 3 ] |
 [ 2 ] | [ 2 ] | [ 1 ] | [ 3 ] |
 [ 3 ] | [ 2 ] | [ 1 ] | [ 3 ] |
 [ 0 ] | [ 3 ] | [ 1 ] | [ 3 ] |
 [ 1 ] | [ 3 ] | [ 1 ] | [ 3 ] |
 [ 2 ] | [ 3 ] | [ 1 ] | [ 3 ] |
 [ 3 ] | [ 3 ] | [ 1 ] | [ 3 ] |
 [ 0 ] | [ 0 ] | [ 2 ] | [ 3 ] |
 [ 1 ] | [ 0 ] | [ 2 ] | [ 3 ] |
 [ 2 ] | [ 0 ] | [ 2 ] | [ 3 ] |
 [ 3 ] | [ 0 ] | [ 2 ] | [ 3 ] |
 [ 0 ] | [ 1 ] | [ 2 ] | [ 3 ] |
 [ 1 ] | [ 1 ] | [ 2 ] | [ 3 ] |
 [ 2 ] | [ 1 ] | [ 2 ] | [ 3 ] |
 [ 3 ] | [ 1 ] | [ 2 ] | [ 3 ] |
 [ 0 ] | [ 2 ] | [ 2 ] | [ 3 ] |
 [ 1 ] | [ 2 ] | [ 2 ] | [ 3 ] |
 [ 2 ] | [ 2 ] | [ 2 ] | [ 3 ] |
 [ 3 ] | [ 2 ] | [ 2 ] | [ 3 ] |
 [ 0 ] | [ 3 ] | [ 2 ] | [ 3 ] |
 [ 1 ] | [ 3 ] | [ 2 ] | [ 3 ] |
 [ 2 ] | [ 3 ] | [ 2 ] | [ 3 ] |
 [ 3 ] | [ 3 ] | [ 2 ] | [ 3 ] |
 [ 0 ] | [ 0 ] | [ 3 ] | [ 3 ] |
 [ 1 ] | [ 0 ] | [ 3 ] | [ 3 ] |
 [ 2 ] | [ 0 ] | [ 3 ] | [ 3 ] |
 [ 3 ] | [ 0 ] | [ 3 ] | [ 3 ] |
 [ 0 ] | [ 1 ] | [ 3 ] | [ 3 ] |
 [ 1 ] | [ 1 ] | [ 3 ] | [ 3 ] |
 [ 2 ] | [ 1 ] | [ 3 ] | [ 3 ] |
 [ 3 ] | [ 1 ] | [ 3 ] | [ 3 ] |
 [ 0 ] | [ 2 ] | [ 3 ] | [ 3 ] |
 [ 1 ] | [ 2 ] | [ 3 ] | [ 3 ] |
 [ 2 ] | [ 2 ] | [ 3 ] | [ 3 ] |
 [ 3 ] | [ 2 ] | [ 3 ] | [ 3 ] |
 [ 0 ] | [ 3 ] | [ 3 ] | [ 3 ] |
 [ 1 ] | [ 3 ] | [ 3 ] | [ 3 ] |
 [ 2 ] | [ 3 ] | [ 3 ] | [ 3 ] |
 [ 3 ] | [ 3 ] | [ 3 ] | [ 3 ] |
 Instance Count : 1
(0) N =     1
 W = 3840 ,
 H = 2160 ,
 Possible = 0
(1) N =     1
 W = 1920 ,
 H = 1088 ,
 Possible = 0
(2) N =     1
 W = 1280 ,
 H = 720 ,
 Possible = 0
(3) N =     1
 W = 720 ,
 H = 480 ,
 Possible = 0
 Instance Count : 2
(0) N =     2
 W = 3840 , 3840 ,
 H = 2160 , 2160 ,
 Possible = 0
(1) N =     2
 W = 1920 , 3840 ,
 H = 1088 , 2160 ,
 Possible = 0
(2) N =     2
 W = 1280 , 3840 ,
 H = 720 , 2160 ,
 Possible = 0
(3) N =     2
 W = 720 , 3840 ,
 H = 480 , 2160 ,
 Possible = 0
(4) N =     2
 W = 3840 , 1920 ,
 H = 2160 , 1088 ,
 Possible = 0
(5) N =     2
 W = 1920 , 1920 ,
 H = 1088 , 1088 ,
 Possible = 0
(6) N =     2
 W = 1280 , 1920 ,
 H = 720 , 1088 ,
 Possible = 0
(7) N =     2
 W = 720 , 1920 ,
 H = 480 , 1088 ,
 Possible = 0
(8) N =     2
 W = 3840 , 1280 ,
 H = 2160 , 720 ,
 Possible = 0
(9) N =     2
 W = 1920 , 1280 ,
 H = 1088 , 720 ,
 Possible = 0
(10) N =     2
 W = 1280 , 1280 ,
 H = 720 , 720 ,
 Possible = 0
(11) N =     2
 W = 720 , 1280 ,
 H = 480 , 720 ,
 Possible = 0
(12) N =     2
 W = 3840 , 720 ,
 H = 2160 , 480 ,
 Possible = 0
(13) N =     2
 W = 1920 , 720 ,
 H = 1088 , 480 ,
 Possible = 0
(14) N =     2
 W = 1280 , 720 ,
 H = 720 , 480 ,
 Possible = 0
(15) N =     2
 W = 720 , 720 ,
 H = 480 , 480 ,
 Possible = 0
 Instance Count : 3
(0) N =     3
 W = 3840 , 3840 , 3840 ,
 H = 2160 , 2160 , 2160 ,
 Possible = 0
(1) N =     3
 W = 1920 , 3840 , 3840 ,
 H = 1088 , 2160 , 2160 ,
 Possible = 0
(2) N =     3
 W = 1280 , 3840 , 3840 ,
 H = 720 , 2160 , 2160 ,
 Possible = 0
(3) N =     3
 W = 720 , 3840 , 3840 ,
 H = 480 , 2160 , 2160 ,
 Possible = 0
(4) N =     3
 W = 3840 , 1920 , 3840 ,
 H = 2160 , 1088 , 2160 ,
 Possible = 0
(5) N =     3
 W = 1920 , 1920 , 3840 ,
 H = 1088 , 1088 , 2160 ,
 Possible = 0
(6) N =     3
 W = 1280 , 1920 , 3840 ,
 H = 720 , 1088 , 2160 ,
 Possible = 0
(7) N =     3
 W = 720 , 1920 , 3840 ,
 H = 480 , 1088 , 2160 ,
 Possible = 0
(8) N =     3
 W = 3840 , 1280 , 3840 ,
 H = 2160 , 720 , 2160 ,
 Possible = 0
(9) N =     3
 W = 1920 , 1280 , 3840 ,
 H = 1088 , 720 , 2160 ,
 Possible = 0
(10) N =     3
 W = 1280 , 1280 , 3840 ,
 H = 720 , 720 , 2160 ,
 Possible = 0
(11) N =     3
 W = 720 , 1280 , 3840 ,
 H = 480 , 720 , 2160 ,
 Possible = 0
(12) N =     3
 W = 3840 , 720 , 3840 ,
 H = 2160 , 480 , 2160 ,
 Possible = 0
(13) N =     3
 W = 1920 , 720 , 3840 ,
 H = 1088 , 480 , 2160 ,
 Possible = 0
(14) N =     3
 W = 1280 , 720 , 3840 ,
 H = 720 , 480 , 2160 ,
 Possible = 0
(15) N =     3
 W = 720 , 720 , 3840 ,
 H = 480 , 480 , 2160 ,
 Possible = 0
(16) N =     3
 W = 3840 , 3840 , 1920 ,
 H = 2160 , 2160 , 1088 ,
 Possible = 0
(17) N =     3
 W = 1920 , 3840 , 1920 ,
 H = 1088 , 2160 , 1088 ,
 Possible = 0
(18) N =     3
 W = 1280 , 3840 , 1920 ,
 H = 720 , 2160 , 1088 ,
 Possible = 0
(19) N =     3
 W = 720 , 3840 , 1920 ,
 H = 480 , 2160 , 1088 ,
 Possible = 0
(20) N =     3
 W = 3840 , 1920 , 1920 ,
 H = 2160 , 1088 , 1088 ,
 Possible = 0
(21) N =     3
 W = 1920 , 1920 , 1920 ,
 H = 1088 , 1088 , 1088 ,
 Possible = 0
(22) N =     3
 W = 1280 , 1920 , 1920 ,
 H = 720 , 1088 , 1088 ,
 Possible = 0
(23) N =     3
 W = 720 , 1920 , 1920 ,
 H = 480 , 1088 , 1088 ,
 Possible = 0
(24) N =     3
 W = 3840 , 1280 , 1920 ,
 H = 2160 , 720 , 1088 ,
 Possible = 0
(25) N =     3
 W = 1920 , 1280 , 1920 ,
 H = 1088 , 720 , 1088 ,
 Possible = 0
(26) N =     3
 W = 1280 , 1280 , 1920 ,
 H = 720 , 720 , 1088 ,
 Possible = 0
(27) N =     3
 W = 720 , 1280 , 1920 ,
 H = 480 , 720 , 1088 ,
 Possible = 0
(28) N =     3
 W = 3840 , 720 , 1920 ,
 H = 2160 , 480 , 1088 ,
 Possible = 0
(29) N =     3
 W = 1920 , 720 , 1920 ,
 H = 1088 , 480 , 1088 ,
 Possible = 0
(30) N =     3
 W = 1280 , 720 , 1920 ,
 H = 720 , 480 , 1088 ,
 Possible = 0
(31) N =     3
 W = 720 , 720 , 1920 ,
 H = 480 , 480 , 1088 ,
 Possible = 0
(32) N =     3
 W = 3840 , 3840 , 1280 ,
 H = 2160 , 2160 , 720 ,
 Possible = 0
(33) N =     3
 W = 1920 , 3840 , 1280 ,
 H = 1088 , 2160 , 720 ,
 Possible = 0
(34) N =     3
 W = 1280 , 3840 , 1280 ,
 H = 720 , 2160 , 720 ,
 Possible = 0
(35) N =     3
 W = 720 , 3840 , 1280 ,
 H = 480 , 2160 , 720 ,
 Possible = 0
(36) N =     3
 W = 3840 , 1920 , 1280 ,
 H = 2160 , 1088 , 720 ,
 Possible = 0
(37) N =     3
 W = 1920 , 1920 , 1280 ,
 H = 1088 , 1088 , 720 ,
 Possible = 0
(38) N =     3
 W = 1280 , 1920 , 1280 ,
 H = 720 , 1088 , 720 ,
 Possible = 0
(39) N =     3
 W = 720 , 1920 , 1280 ,
 H = 480 , 1088 , 720 ,
 Possible = 0
(40) N =     3
 W = 3840 , 1280 , 1280 ,
 H = 2160 , 720 , 720 ,
 Possible = 0
(41) N =     3
 W = 1920 , 1280 , 1280 ,
 H = 1088 , 720 , 720 ,
 Possible = 0
(42) N =     3
 W = 1280 , 1280 , 1280 ,
 H = 720 , 720 , 720 ,
 Possible = 0
(43) N =     3
 W = 720 , 1280 , 1280 ,
 H = 480 , 720 , 720 ,
 Possible = 0
(44) N =     3
 W = 3840 , 720 , 1280 ,
 H = 2160 , 480 , 720 ,
 Possible = 0
(45) N =     3
 W = 1920 , 720 , 1280 ,
 H = 1088 , 480 , 720 ,
 Possible = 0
(46) N =     3
 W = 1280 , 720 , 1280 ,
 H = 720 , 480 , 720 ,
 Possible = 0
(47) N =     3
 W = 720 , 720 , 1280 ,
 H = 480 , 480 , 720 ,
 Possible = 0
(48) N =     3
 W = 3840 , 3840 , 720 ,
 H = 2160 , 2160 , 480 ,
 Possible = 0
(49) N =     3
 W = 1920 , 3840 , 720 ,
 H = 1088 , 2160 , 480 ,
 Possible = 0
(50) N =     3
 W = 1280 , 3840 , 720 ,
 H = 720 , 2160 , 480 ,
 Possible = 0
(51) N =     3
 W = 720 , 3840 , 720 ,
 H = 480 , 2160 , 480 ,
 Possible = 0
(52) N =     3
 W = 3840 , 1920 , 720 ,
 H = 2160 , 1088 , 480 ,
 Possible = 0
(53) N =     3
 W = 1920 , 1920 , 720 ,
 H = 1088 , 1088 , 480 ,
 Possible = 0
(54) N =     3
 W = 1280 , 1920 , 720 ,
 H = 720 , 1088 , 480 ,
 Possible = 0
(55) N =     3
 W = 720 , 1920 , 720 ,
 H = 480 , 1088 , 480 ,
 Possible = 0
(56) N =     3
 W = 3840 , 1280 , 720 ,
 H = 2160 , 720 , 480 ,
 Possible = 0
(57) N =     3
 W = 1920 , 1280 , 720 ,
 H = 1088 , 720 , 480 ,
 Possible = 0
(58) N =     3
 W = 1280 , 1280 , 720 ,
 H = 720 , 720 , 480 ,
 Possible = 0
(59) N =     3
 W = 720 , 1280 , 720 ,
 H = 480 , 720 , 480 ,
 Possible = 0
(60) N =     3
 W = 3840 , 720 , 720 ,
 H = 2160 , 480 , 480 ,
 Possible = 0
(61) N =     3
 W = 1920 , 720 , 720 ,
 H = 1088 , 480 , 480 ,
 Possible = 0
(62) N =     3
 W = 1280 , 720 , 720 ,
 H = 720 , 480 , 480 ,
 Possible = 0
(63) N =     3
 W = 720 , 720 , 720 ,
 H = 480 , 480 , 480 ,
 Possible = 0
 Instance Count : 4
(0) N =     4
 W = 3840 , 3840 , 3840 , 3840 ,
 H = 2160 , 2160 , 2160 , 2160 ,
 Possible = 0
(1) N =     4
 W = 1920 , 3840 , 3840 , 3840 ,
 H = 1088 , 2160 , 2160 , 2160 ,
 Possible = 0
(2) N =     4
 W = 1280 , 3840 , 3840 , 3840 ,
 H = 720 , 2160 , 2160 , 2160 ,
 Possible = 0
(3) N =     4
 W = 720 , 3840 , 3840 , 3840 ,
 H = 480 , 2160 , 2160 , 2160 ,
 Possible = 0
(4) N =     4
 W = 3840 , 1920 , 3840 , 3840 ,
 H = 2160 , 1088 , 2160 , 2160 ,
 Possible = 0
(5) N =     4
 W = 1920 , 1920 , 3840 , 3840 ,
 H = 1088 , 1088 , 2160 , 2160 ,
 Possible = 0
(6) N =     4
 W = 1280 , 1920 , 3840 , 3840 ,
 H = 720 , 1088 , 2160 , 2160 ,
 Possible = 0
(7) N =     4
 W = 720 , 1920 , 3840 , 3840 ,
 H = 480 , 1088 , 2160 , 2160 ,
 Possible = 0
(8) N =     4
 W = 3840 , 1280 , 3840 , 3840 ,
 H = 2160 , 720 , 2160 , 2160 ,
 Possible = 0
(9) N =     4
 W = 1920 , 1280 , 3840 , 3840 ,
 H = 1088 , 720 , 2160 , 2160 ,
 Possible = 0
(10) N =     4
 W = 1280 , 1280 , 3840 , 3840 ,
 H = 720 , 720 , 2160 , 2160 ,
 Possible = 0
(11) N =     4
 W = 720 , 1280 , 3840 , 3840 ,
 H = 480 , 720 , 2160 , 2160 ,
 Possible = 0
(12) N =     4
 W = 3840 , 720 , 3840 , 3840 ,
 H = 2160 , 480 , 2160 , 2160 ,
 Possible = 0
(13) N =     4
 W = 1920 , 720 , 3840 , 3840 ,
 H = 1088 , 480 , 2160 , 2160 ,
 Possible = 0
(14) N =     4
 W = 1280 , 720 , 3840 , 3840 ,
 H = 720 , 480 , 2160 , 2160 ,
 Possible = 0
(15) N =     4
 W = 720 , 720 , 3840 , 3840 ,
 H = 480 , 480 , 2160 , 2160 ,
 Possible = 0
(16) N =     4
 W = 3840 , 3840 , 1920 , 3840 ,
 H = 2160 , 2160 , 1088 , 2160 ,
 Possible = 0
(17) N =     4
 W = 1920 , 3840 , 1920 , 3840 ,
 H = 1088 , 2160 , 1088 , 2160 ,
 Possible = 0
(18) N =     4
 W = 1280 , 3840 , 1920 , 3840 ,
 H = 720 , 2160 , 1088 , 2160 ,
 Possible = 0
(19) N =     4
 W = 720 , 3840 , 1920 , 3840 ,
 H = 480 , 2160 , 1088 , 2160 ,
 Possible = 0
(20) N =     4
 W = 3840 , 1920 , 1920 , 3840 ,
 H = 2160 , 1088 , 1088 , 2160 ,
 Possible = 0
(21) N =     4
 W = 1920 , 1920 , 1920 , 3840 ,
 H = 1088 , 1088 , 1088 , 2160 ,
 Possible = 0
(22) N =     4
 W = 1280 , 1920 , 1920 , 3840 ,
 H = 720 , 1088 , 1088 , 2160 ,
 Possible = 0
(23) N =     4
 W = 720 , 1920 , 1920 , 3840 ,
 H = 480 , 1088 , 1088 , 2160 ,
 Possible = 0
(24) N =     4
 W = 3840 , 1280 , 1920 , 3840 ,
 H = 2160 , 720 , 1088 , 2160 ,
 Possible = 0
(25) N =     4
 W = 1920 , 1280 , 1920 , 3840 ,
 H = 1088 , 720 , 1088 , 2160 ,
 Possible = 0
(26) N =     4
 W = 1280 , 1280 , 1920 , 3840 ,
 H = 720 , 720 , 1088 , 2160 ,
 Possible = 0
(27) N =     4
 W = 720 , 1280 , 1920 , 3840 ,
 H = 480 , 720 , 1088 , 2160 ,
 Possible = 0
(28) N =     4
 W = 3840 , 720 , 1920 , 3840 ,
 H = 2160 , 480 , 1088 , 2160 ,
 Possible = 0
(29) N =     4
 W = 1920 , 720 , 1920 , 3840 ,
 H = 1088 , 480 , 1088 , 2160 ,
 Possible = 0
(30) N =     4
 W = 1280 , 720 , 1920 , 3840 ,
 H = 720 , 480 , 1088 , 2160 ,
 Possible = 0
(31) N =     4
 W = 720 , 720 , 1920 , 3840 ,
 H = 480 , 480 , 1088 , 2160 ,
 Possible = 0
(32) N =     4
 W = 3840 , 3840 , 1280 , 3840 ,
 H = 2160 , 2160 , 720 , 2160 ,
 Possible = 0
(33) N =     4
 W = 1920 , 3840 , 1280 , 3840 ,
 H = 1088 , 2160 , 720 , 2160 ,
 Possible = 0
(34) N =     4
 W = 1280 , 3840 , 1280 , 3840 ,
 H = 720 , 2160 , 720 , 2160 ,
 Possible = 0
(35) N =     4
 W = 720 , 3840 , 1280 , 3840 ,
 H = 480 , 2160 , 720 , 2160 ,
 Possible = 0
(36) N =     4
 W = 3840 , 1920 , 1280 , 3840 ,
 H = 2160 , 1088 , 720 , 2160 ,
 Possible = 0
(37) N =     4
 W = 1920 , 1920 , 1280 , 3840 ,
 H = 1088 , 1088 , 720 , 2160 ,
 Possible = 0
(38) N =     4
 W = 1280 , 1920 , 1280 , 3840 ,
 H = 720 , 1088 , 720 , 2160 ,
 Possible = 0
(39) N =     4
 W = 720 , 1920 , 1280 , 3840 ,
 H = 480 , 1088 , 720 , 2160 ,
 Possible = 0
(40) N =     4
 W = 3840 , 1280 , 1280 , 3840 ,
 H = 2160 , 720 , 720 , 2160 ,
 Possible = 0
(41) N =     4
 W = 1920 , 1280 , 1280 , 3840 ,
 H = 1088 , 720 , 720 , 2160 ,
 Possible = 0
(42) N =     4
 W = 1280 , 1280 , 1280 , 3840 ,
 H = 720 , 720 , 720 , 2160 ,
 Possible = 0
(43) N =     4
 W = 720 , 1280 , 1280 , 3840 ,
 H = 480 , 720 , 720 , 2160 ,
 Possible = 0
(44) N =     4
 W = 3840 , 720 , 1280 , 3840 ,
 H = 2160 , 480 , 720 , 2160 ,
 Possible = 0
(45) N =     4
 W = 1920 , 720 , 1280 , 3840 ,
 H = 1088 , 480 , 720 , 2160 ,
 Possible = 0
(46) N =     4
 W = 1280 , 720 , 1280 , 3840 ,
 H = 720 , 480 , 720 , 2160 ,
 Possible = 0
(47) N =     4
 W = 720 , 720 , 1280 , 3840 ,
 H = 480 , 480 , 720 , 2160 ,
 Possible = 0
(48) N =     4
 W = 3840 , 3840 , 720 , 3840 ,
 H = 2160 , 2160 , 480 , 2160 ,
 Possible = 0
(49) N =     4
 W = 1920 , 3840 , 720 , 3840 ,
 H = 1088 , 2160 , 480 , 2160 ,
 Possible = 0
(50) N =     4
 W = 1280 , 3840 , 720 , 3840 ,
 H = 720 , 2160 , 480 , 2160 ,
 Possible = 0
(51) N =     4
 W = 720 , 3840 , 720 , 3840 ,
 H = 480 , 2160 , 480 , 2160 ,
 Possible = 0
(52) N =     4
 W = 3840 , 1920 , 720 , 3840 ,
 H = 2160 , 1088 , 480 , 2160 ,
 Possible = 0
(53) N =     4
 W = 1920 , 1920 , 720 , 3840 ,
 H = 1088 , 1088 , 480 , 2160 ,
 Possible = 0
(54) N =     4
 W = 1280 , 1920 , 720 , 3840 ,
 H = 720 , 1088 , 480 , 2160 ,
 Possible = 0
(55) N =     4
 W = 720 , 1920 , 720 , 3840 ,
 H = 480 , 1088 , 480 , 2160 ,
 Possible = 0
(56) N =     4
 W = 3840 , 1280 , 720 , 3840 ,
 H = 2160 , 720 , 480 , 2160 ,
 Possible = 0
(57) N =     4
 W = 1920 , 1280 , 720 , 3840 ,
 H = 1088 , 720 , 480 , 2160 ,
 Possible = 0
(58) N =     4
 W = 1280 , 1280 , 720 , 3840 ,
 H = 720 , 720 , 480 , 2160 ,
 Possible = 0
(59) N =     4
 W = 720 , 1280 , 720 , 3840 ,
 H = 480 , 720 , 480 , 2160 ,
 Possible = 0
(60) N =     4
 W = 3840 , 720 , 720 , 3840 ,
 H = 2160 , 480 , 480 , 2160 ,
 Possible = 0
(61) N =     4
 W = 1920 , 720 , 720 , 3840 ,
 H = 1088 , 480 , 480 , 2160 ,
 Possible = 0
(62) N =     4
 W = 1280 , 720 , 720 , 3840 ,
 H = 720 , 480 , 480 , 2160 ,
 Possible = 0
(63) N =     4
 W = 720 , 720 , 720 , 3840 ,
 H = 480 , 480 , 480 , 2160 ,
 Possible = 0
(64) N =     4
 W = 3840 , 3840 , 3840 , 1920 ,
 H = 2160 , 2160 , 2160 , 1088 ,
 Possible = 0
(65) N =     4
 W = 1920 , 3840 , 3840 , 1920 ,
 H = 1088 , 2160 , 2160 , 1088 ,
 Possible = 0
(66) N =     4
 W = 1280 , 3840 , 3840 , 1920 ,
 H = 720 , 2160 , 2160 , 1088 ,
 Possible = 0
(67) N =     4
 W = 720 , 3840 , 3840 , 1920 ,
 H = 480 , 2160 , 2160 , 1088 ,
 Possible = 0
(68) N =     4
 W = 3840 , 1920 , 3840 , 1920 ,
 H = 2160 , 1088 , 2160 , 1088 ,
 Possible = 0
(69) N =     4
 W = 1920 , 1920 , 3840 , 1920 ,
 H = 1088 , 1088 , 2160 , 1088 ,
 Possible = 0
(70) N =     4
 W = 1280 , 1920 , 3840 , 1920 ,
 H = 720 , 1088 , 2160 , 1088 ,
 Possible = 0
(71) N =     4
 W = 720 , 1920 , 3840 , 1920 ,
 H = 480 , 1088 , 2160 , 1088 ,
 Possible = 0
(72) N =     4
 W = 3840 , 1280 , 3840 , 1920 ,
 H = 2160 , 720 , 2160 , 1088 ,
 Possible = 0
(73) N =     4
 W = 1920 , 1280 , 3840 , 1920 ,
 H = 1088 , 720 , 2160 , 1088 ,
 Possible = 0
(74) N =     4
 W = 1280 , 1280 , 3840 , 1920 ,
 H = 720 , 720 , 2160 , 1088 ,
 Possible = 0
(75) N =     4
 W = 720 , 1280 , 3840 , 1920 ,
 H = 480 , 720 , 2160 , 1088 ,
 Possible = 0
(76) N =     4
 W = 3840 , 720 , 3840 , 1920 ,
 H = 2160 , 480 , 2160 , 1088 ,
 Possible = 0
(77) N =     4
 W = 1920 , 720 , 3840 , 1920 ,
 H = 1088 , 480 , 2160 , 1088 ,
 Possible = 0
(78) N =     4
 W = 1280 , 720 , 3840 , 1920 ,
 H = 720 , 480 , 2160 , 1088 ,
 Possible = 0
(79) N =     4
 W = 720 , 720 , 3840 , 1920 ,
 H = 480 , 480 , 2160 , 1088 ,
 Possible = 0
(80) N =     4
 W = 3840 , 3840 , 1920 , 1920 ,
 H = 2160 , 2160 , 1088 , 1088 ,
 Possible = 0
(81) N =     4
 W = 1920 , 3840 , 1920 , 1920 ,
 H = 1088 , 2160 , 1088 , 1088 ,
 Possible = 0
(82) N =     4
 W = 1280 , 3840 , 1920 , 1920 ,
 H = 720 , 2160 , 1088 , 1088 ,
 Possible = 0
(83) N =     4
 W = 720 , 3840 , 1920 , 1920 ,
 H = 480 , 2160 , 1088 , 1088 ,
 Possible = 0
(84) N =     4
 W = 3840 , 1920 , 1920 , 1920 ,
 H = 2160 , 1088 , 1088 , 1088 ,
 Possible = 0
(85) N =     4
 W = 1920 , 1920 , 1920 , 1920 ,
 H = 1088 , 1088 , 1088 , 1088 ,
 Possible = 0
(86) N =     4
 W = 1280 , 1920 , 1920 , 1920 ,
 H = 720 , 1088 , 1088 , 1088 ,
 Possible = 0
(87) N =     4
 W = 720 , 1920 , 1920 , 1920 ,
 H = 480 , 1088 , 1088 , 1088 ,
 Possible = 0
(88) N =     4
 W = 3840 , 1280 , 1920 , 1920 ,
 H = 2160 , 720 , 1088 , 1088 ,
 Possible = 0
(89) N =     4
 W = 1920 , 1280 , 1920 , 1920 ,
 H = 1088 , 720 , 1088 , 1088 ,
 Possible = 0
(90) N =     4
 W = 1280 , 1280 , 1920 , 1920 ,
 H = 720 , 720 , 1088 , 1088 ,
 Possible = 0
(91) N =     4
 W = 720 , 1280 , 1920 , 1920 ,
 H = 480 , 720 , 1088 , 1088 ,
 Possible = 0
(92) N =     4
 W = 3840 , 720 , 1920 , 1920 ,
 H = 2160 , 480 , 1088 , 1088 ,
 Possible = 0
(93) N =     4
 W = 1920 , 720 , 1920 , 1920 ,
 H = 1088 , 480 , 1088 , 1088 ,
 Possible = 0
(94) N =     4
 W = 1280 , 720 , 1920 , 1920 ,
 H = 720 , 480 , 1088 , 1088 ,
 Possible = 0
(95) N =     4
 W = 720 , 720 , 1920 , 1920 ,
 H = 480 , 480 , 1088 , 1088 ,
 Possible = 0
(96) N =     4
 W = 3840 , 3840 , 1280 , 1920 ,
 H = 2160 , 2160 , 720 , 1088 ,
 Possible = 0
(97) N =     4
 W = 1920 , 3840 , 1280 , 1920 ,
 H = 1088 , 2160 , 720 , 1088 ,
 Possible = 0
(98) N =     4
 W = 1280 , 3840 , 1280 , 1920 ,
 H = 720 , 2160 , 720 , 1088 ,
 Possible = 0
(99) N =     4
 W = 720 , 3840 , 1280 , 1920 ,
 H = 480 , 2160 , 720 , 1088 ,
 Possible = 0
(100) N =     4
 W = 3840 , 1920 , 1280 , 1920 ,
 H = 2160 , 1088 , 720 , 1088 ,
 Possible = 0
(101) N =     4
 W = 1920 , 1920 , 1280 , 1920 ,
 H = 1088 , 1088 , 720 , 1088 ,
 Possible = 0
(102) N =     4
 W = 1280 , 1920 , 1280 , 1920 ,
 H = 720 , 1088 , 720 , 1088 ,
 Possible = 0
(103) N =     4
 W = 720 , 1920 , 1280 , 1920 ,
 H = 480 , 1088 , 720 , 1088 ,
 Possible = 0
(104) N =     4
 W = 3840 , 1280 , 1280 , 1920 ,
 H = 2160 , 720 , 720 , 1088 ,
 Possible = 0
(105) N =     4
 W = 1920 , 1280 , 1280 , 1920 ,
 H = 1088 , 720 , 720 , 1088 ,
 Possible = 0
(106) N =     4
 W = 1280 , 1280 , 1280 , 1920 ,
 H = 720 , 720 , 720 , 1088 ,
 Possible = 0
(107) N =     4
 W = 720 , 1280 , 1280 , 1920 ,
 H = 480 , 720 , 720 , 1088 ,
 Possible = 0
(108) N =     4
 W = 3840 , 720 , 1280 , 1920 ,
 H = 2160 , 480 , 720 , 1088 ,
 Possible = 0
(109) N =     4
 W = 1920 , 720 , 1280 , 1920 ,
 H = 1088 , 480 , 720 , 1088 ,
 Possible = 0
(110) N =     4
 W = 1280 , 720 , 1280 , 1920 ,
 H = 720 , 480 , 720 , 1088 ,
 Possible = 0
(111) N =     4
 W = 720 , 720 , 1280 , 1920 ,
 H = 480 , 480 , 720 , 1088 ,
 Possible = 0
(112) N =     4
 W = 3840 , 3840 , 720 , 1920 ,
 H = 2160 , 2160 , 480 , 1088 ,
 Possible = 0
(113) N =     4
 W = 1920 , 3840 , 720 , 1920 ,
 H = 1088 , 2160 , 480 , 1088 ,
 Possible = 0
(114) N =     4
 W = 1280 , 3840 , 720 , 1920 ,
 H = 720 , 2160 , 480 , 1088 ,
 Possible = 0
(115) N =     4
 W = 720 , 3840 , 720 , 1920 ,
 H = 480 , 2160 , 480 , 1088 ,
 Possible = 0
(116) N =     4
 W = 3840 , 1920 , 720 , 1920 ,
 H = 2160 , 1088 , 480 , 1088 ,
 Possible = 0
(117) N =     4
 W = 1920 , 1920 , 720 , 1920 ,
 H = 1088 , 1088 , 480 , 1088 ,
 Possible = 0
(118) N =     4
 W = 1280 , 1920 , 720 , 1920 ,
 H = 720 , 1088 , 480 , 1088 ,
 Possible = 0
(119) N =     4
 W = 720 , 1920 , 720 , 1920 ,
 H = 480 , 1088 , 480 , 1088 ,
 Possible = 0
(120) N =     4
 W = 3840 , 1280 , 720 , 1920 ,
 H = 2160 , 720 , 480 , 1088 ,
 Possible = 0
(121) N =     4
 W = 1920 , 1280 , 720 , 1920 ,
 H = 1088 , 720 , 480 , 1088 ,
 Possible = 0
(122) N =     4
 W = 1280 , 1280 , 720 , 1920 ,
 H = 720 , 720 , 480 , 1088 ,
 Possible = 0
(123) N =     4
 W = 720 , 1280 , 720 , 1920 ,
 H = 480 , 720 , 480 , 1088 ,
 Possible = 0
(124) N =     4
 W = 3840 , 720 , 720 , 1920 ,
 H = 2160 , 480 , 480 , 1088 ,
 Possible = 0
(125) N =     4
 W = 1920 , 720 , 720 , 1920 ,
 H = 1088 , 480 , 480 , 1088 ,
 Possible = 0
(126) N =     4
 W = 1280 , 720 , 720 , 1920 ,
 H = 720 , 480 , 480 , 1088 ,
 Possible = 0
(127) N =     4
 W = 720 , 720 , 720 , 1920 ,
 H = 480 , 480 , 480 , 1088 ,
 Possible = 0
(128) N =     4
 W = 3840 , 3840 , 3840 , 1280 ,
 H = 2160 , 2160 , 2160 , 720 ,
 Possible = 0
(129) N =     4
 W = 1920 , 3840 , 3840 , 1280 ,
 H = 1088 , 2160 , 2160 , 720 ,
 Possible = 0
(130) N =     4
 W = 1280 , 3840 , 3840 , 1280 ,
 H = 720 , 2160 , 2160 , 720 ,
 Possible = 0
(131) N =     4
 W = 720 , 3840 , 3840 , 1280 ,
 H = 480 , 2160 , 2160 , 720 ,
 Possible = 0
(132) N =     4
 W = 3840 , 1920 , 3840 , 1280 ,
 H = 2160 , 1088 , 2160 , 720 ,
 Possible = 0
(133) N =     4
 W = 1920 , 1920 , 3840 , 1280 ,
 H = 1088 , 1088 , 2160 , 720 ,
 Possible = 0
(134) N =     4
 W = 1280 , 1920 , 3840 , 1280 ,
 H = 720 , 1088 , 2160 , 720 ,
 Possible = 0
(135) N =     4
 W = 720 , 1920 , 3840 , 1280 ,
 H = 480 , 1088 , 2160 , 720 ,
 Possible = 0
(136) N =     4
 W = 3840 , 1280 , 3840 , 1280 ,
 H = 2160 , 720 , 2160 , 720 ,
 Possible = 0
(137) N =     4
 W = 1920 , 1280 , 3840 , 1280 ,
 H = 1088 , 720 , 2160 , 720 ,
 Possible = 0
(138) N =     4
 W = 1280 , 1280 , 3840 , 1280 ,
 H = 720 , 720 , 2160 , 720 ,
 Possible = 0
(139) N =     4
 W = 720 , 1280 , 3840 , 1280 ,
 H = 480 , 720 , 2160 , 720 ,
 Possible = 0
(140) N =     4
 W = 3840 , 720 , 3840 , 1280 ,
 H = 2160 , 480 , 2160 , 720 ,
 Possible = 0
(141) N =     4
 W = 1920 , 720 , 3840 , 1280 ,
 H = 1088 , 480 , 2160 , 720 ,
 Possible = 0
(142) N =     4
 W = 1280 , 720 , 3840 , 1280 ,
 H = 720 , 480 , 2160 , 720 ,
 Possible = 0
(143) N =     4
 W = 720 , 720 , 3840 , 1280 ,
 H = 480 , 480 , 2160 , 720 ,
 Possible = 0
(144) N =     4
 W = 3840 , 3840 , 1920 , 1280 ,
 H = 2160 , 2160 , 1088 , 720 ,
 Possible = 0
(145) N =     4
 W = 1920 , 3840 , 1920 , 1280 ,
 H = 1088 , 2160 , 1088 , 720 ,
 Possible = 0
(146) N =     4
 W = 1280 , 3840 , 1920 , 1280 ,
 H = 720 , 2160 , 1088 , 720 ,
 Possible = 0
(147) N =     4
 W = 720 , 3840 , 1920 , 1280 ,
 H = 480 , 2160 , 1088 , 720 ,
 Possible = 0
(148) N =     4
 W = 3840 , 1920 , 1920 , 1280 ,
 H = 2160 , 1088 , 1088 , 720 ,
 Possible = 0
(149) N =     4
 W = 1920 , 1920 , 1920 , 1280 ,
 H = 1088 , 1088 , 1088 , 720 ,
 Possible = 0
(150) N =     4
 W = 1280 , 1920 , 1920 , 1280 ,
 H = 720 , 1088 , 1088 , 720 ,
 Possible = 0
(151) N =     4
 W = 720 , 1920 , 1920 , 1280 ,
 H = 480 , 1088 , 1088 , 720 ,
 Possible = 0
(152) N =     4
 W = 3840 , 1280 , 1920 , 1280 ,
 H = 2160 , 720 , 1088 , 720 ,
 Possible = 0
(153) N =     4
 W = 1920 , 1280 , 1920 , 1280 ,
 H = 1088 , 720 , 1088 , 720 ,
 Possible = 0
(154) N =     4
 W = 1280 , 1280 , 1920 , 1280 ,
 H = 720 , 720 , 1088 , 720 ,
 Possible = 0
(155) N =     4
 W = 720 , 1280 , 1920 , 1280 ,
 H = 480 , 720 , 1088 , 720 ,
 Possible = 0
(156) N =     4
 W = 3840 , 720 , 1920 , 1280 ,
 H = 2160 , 480 , 1088 , 720 ,
 Possible = 0
(157) N =     4
 W = 1920 , 720 , 1920 , 1280 ,
 H = 1088 , 480 , 1088 , 720 ,
 Possible = 0
(158) N =     4
 W = 1280 , 720 , 1920 , 1280 ,
 H = 720 , 480 , 1088 , 720 ,
 Possible = 0
(159) N =     4
 W = 720 , 720 , 1920 , 1280 ,
 H = 480 , 480 , 1088 , 720 ,
 Possible = 0
(160) N =     4
 W = 3840 , 3840 , 1280 , 1280 ,
 H = 2160 , 2160 , 720 , 720 ,
 Possible = 0
(161) N =     4
 W = 1920 , 3840 , 1280 , 1280 ,
 H = 1088 , 2160 , 720 , 720 ,
 Possible = 0
(162) N =     4
 W = 1280 , 3840 , 1280 , 1280 ,
 H = 720 , 2160 , 720 , 720 ,
 Possible = 0
(163) N =     4
 W = 720 , 3840 , 1280 , 1280 ,
 H = 480 , 2160 , 720 , 720 ,
 Possible = 0
(164) N =     4
 W = 3840 , 1920 , 1280 , 1280 ,
 H = 2160 , 1088 , 720 , 720 ,
 Possible = 0
(165) N =     4
 W = 1920 , 1920 , 1280 , 1280 ,
 H = 1088 , 1088 , 720 , 720 ,
 Possible = 0
(166) N =     4
 W = 1280 , 1920 , 1280 , 1280 ,
 H = 720 , 1088 , 720 , 720 ,
 Possible = 0
(167) N =     4
 W = 720 , 1920 , 1280 , 1280 ,
 H = 480 , 1088 , 720 , 720 ,
 Possible = 0
(168) N =     4
 W = 3840 , 1280 , 1280 , 1280 ,
 H = 2160 , 720 , 720 , 720 ,
 Possible = 0
(169) N =     4
 W = 1920 , 1280 , 1280 , 1280 ,
 H = 1088 , 720 , 720 , 720 ,
 Possible = 0
(170) N =     4
 W = 1280 , 1280 , 1280 , 1280 ,
 H = 720 , 720 , 720 , 720 ,
 Possible = 0
(171) N =     4
 W = 720 , 1280 , 1280 , 1280 ,
 H = 480 , 720 , 720 , 720 ,
 Possible = 0
(172) N =     4
 W = 3840 , 720 , 1280 , 1280 ,
 H = 2160 , 480 , 720 , 720 ,
 Possible = 0
(173) N =     4
 W = 1920 , 720 , 1280 , 1280 ,
 H = 1088 , 480 , 720 , 720 ,
 Possible = 0
(174) N =     4
 W = 1280 , 720 , 1280 , 1280 ,
 H = 720 , 480 , 720 , 720 ,
 Possible = 0
(175) N =     4
 W = 720 , 720 , 1280 , 1280 ,
 H = 480 , 480 , 720 , 720 ,
 Possible = 0
(176) N =     4
 W = 3840 , 3840 , 720 , 1280 ,
 H = 2160 , 2160 , 480 , 720 ,
 Possible = 0
(177) N =     4
 W = 1920 , 3840 , 720 , 1280 ,
 H = 1088 , 2160 , 480 , 720 ,
 Possible = 0
(178) N =     4
 W = 1280 , 3840 , 720 , 1280 ,
 H = 720 , 2160 , 480 , 720 ,
 Possible = 0
(179) N =     4
 W = 720 , 3840 , 720 , 1280 ,
 H = 480 , 2160 , 480 , 720 ,
 Possible = 0
(180) N =     4
 W = 3840 , 1920 , 720 , 1280 ,
 H = 2160 , 1088 , 480 , 720 ,
 Possible = 0
(181) N =     4
 W = 1920 , 1920 , 720 , 1280 ,
 H = 1088 , 1088 , 480 , 720 ,
 Possible = 0
(182) N =     4
 W = 1280 , 1920 , 720 , 1280 ,
 H = 720 , 1088 , 480 , 720 ,
 Possible = 0
(183) N =     4
 W = 720 , 1920 , 720 , 1280 ,
 H = 480 , 1088 , 480 , 720 ,
 Possible = 0
(184) N =     4
 W = 3840 , 1280 , 720 , 1280 ,
 H = 2160 , 720 , 480 , 720 ,
 Possible = 0
(185) N =     4
 W = 1920 , 1280 , 720 , 1280 ,
 H = 1088 , 720 , 480 , 720 ,
 Possible = 0
(186) N =     4
 W = 1280 , 1280 , 720 , 1280 ,
 H = 720 , 720 , 480 , 720 ,
 Possible = 0
(187) N =     4
 W = 720 , 1280 , 720 , 1280 ,
 H = 480 , 720 , 480 , 720 ,
 Possible = 0
(188) N =     4
 W = 3840 , 720 , 720 , 1280 ,
 H = 2160 , 480 , 480 , 720 ,
 Possible = 0
(189) N =     4
 W = 1920 , 720 , 720 , 1280 ,
 H = 1088 , 480 , 480 , 720 ,
 Possible = 0
(190) N =     4
 W = 1280 , 720 , 720 , 1280 ,
 H = 720 , 480 , 480 , 720 ,
 Possible = 0
(191) N =     4
 W = 720 , 720 , 720 , 1280 ,
 H = 480 , 480 , 480 , 720 ,
 Possible = 0
(192) N =     4
 W = 3840 , 3840 , 3840 , 720 ,
 H = 2160 , 2160 , 2160 , 480 ,
 Possible = 0
(193) N =     4
 W = 1920 , 3840 , 3840 , 720 ,
 H = 1088 , 2160 , 2160 , 480 ,
 Possible = 0
(194) N =     4
 W = 1280 , 3840 , 3840 , 720 ,
 H = 720 , 2160 , 2160 , 480 ,
 Possible = 0
(195) N =     4
 W = 720 , 3840 , 3840 , 720 ,
 H = 480 , 2160 , 2160 , 480 ,
 Possible = 0
(196) N =     4
 W = 3840 , 1920 , 3840 , 720 ,
 H = 2160 , 1088 , 2160 , 480 ,
 Possible = 0
(197) N =     4
 W = 1920 , 1920 , 3840 , 720 ,
 H = 1088 , 1088 , 2160 , 480 ,
 Possible = 0
(198) N =     4
 W = 1280 , 1920 , 3840 , 720 ,
 H = 720 , 1088 , 2160 , 480 ,
 Possible = 0
(199) N =     4
 W = 720 , 1920 , 3840 , 720 ,
 H = 480 , 1088 , 2160 , 480 ,
 Possible = 0
(200) N =     4
 W = 3840 , 1280 , 3840 , 720 ,
 H = 2160 , 720 , 2160 , 480 ,
 Possible = 0
(201) N =     4
 W = 1920 , 1280 , 3840 , 720 ,
 H = 1088 , 720 , 2160 , 480 ,
 Possible = 0
(202) N =     4
 W = 1280 , 1280 , 3840 , 720 ,
 H = 720 , 720 , 2160 , 480 ,
 Possible = 0
(203) N =     4
 W = 720 , 1280 , 3840 , 720 ,
 H = 480 , 720 , 2160 , 480 ,
 Possible = 0
(204) N =     4
 W = 3840 , 720 , 3840 , 720 ,
 H = 2160 , 480 , 2160 , 480 ,
 Possible = 0
(205) N =     4
 W = 1920 , 720 , 3840 , 720 ,
 H = 1088 , 480 , 2160 , 480 ,
 Possible = 0
(206) N =     4
 W = 1280 , 720 , 3840 , 720 ,
 H = 720 , 480 , 2160 , 480 ,
 Possible = 0
(207) N =     4
 W = 720 , 720 , 3840 , 720 ,
 H = 480 , 480 , 2160 , 480 ,
 Possible = 0
(208) N =     4
 W = 3840 , 3840 , 1920 , 720 ,
 H = 2160 , 2160 , 1088 , 480 ,
 Possible = 0
(209) N =     4
 W = 1920 , 3840 , 1920 , 720 ,
 H = 1088 , 2160 , 1088 , 480 ,
 Possible = 0
(210) N =     4
 W = 1280 , 3840 , 1920 , 720 ,
 H = 720 , 2160 , 1088 , 480 ,
 Possible = 0
(211) N =     4
 W = 720 , 3840 , 1920 , 720 ,
 H = 480 , 2160 , 1088 , 480 ,
 Possible = 0
(212) N =     4
 W = 3840 , 1920 , 1920 , 720 ,
 H = 2160 , 1088 , 1088 , 480 ,
 Possible = 0
(213) N =     4
 W = 1920 , 1920 , 1920 , 720 ,
 H = 1088 , 1088 , 1088 , 480 ,
 Possible = 0
(214) N =     4
 W = 1280 , 1920 , 1920 , 720 ,
 H = 720 , 1088 , 1088 , 480 ,
 Possible = 0
(215) N =     4
 W = 720 , 1920 , 1920 , 720 ,
 H = 480 , 1088 , 1088 , 480 ,
 Possible = 0
(216) N =     4
 W = 3840 , 1280 , 1920 , 720 ,
 H = 2160 , 720 , 1088 , 480 ,
 Possible = 0
(217) N =     4
 W = 1920 , 1280 , 1920 , 720 ,
 H = 1088 , 720 , 1088 , 480 ,
 Possible = 0
(218) N =     4
 W = 1280 , 1280 , 1920 , 720 ,
 H = 720 , 720 , 1088 , 480 ,
 Possible = 0
(219) N =     4
 W = 720 , 1280 , 1920 , 720 ,
 H = 480 , 720 , 1088 , 480 ,
 Possible = 0
(220) N =     4
 W = 3840 , 720 , 1920 , 720 ,
 H = 2160 , 480 , 1088 , 480 ,
 Possible = 0
(221) N =     4
 W = 1920 , 720 , 1920 , 720 ,
 H = 1088 , 480 , 1088 , 480 ,
 Possible = 0
(222) N =     4
 W = 1280 , 720 , 1920 , 720 ,
 H = 720 , 480 , 1088 , 480 ,
 Possible = 0
(223) N =     4
 W = 720 , 720 , 1920 , 720 ,
 H = 480 , 480 , 1088 , 480 ,
 Possible = 0
(224) N =     4
 W = 3840 , 3840 , 1280 , 720 ,
 H = 2160 , 2160 , 720 , 480 ,
 Possible = 0
(225) N =     4
 W = 1920 , 3840 , 1280 , 720 ,
 H = 1088 , 2160 , 720 , 480 ,
 Possible = 0
(226) N =     4
 W = 1280 , 3840 , 1280 , 720 ,
 H = 720 , 2160 , 720 , 480 ,
 Possible = 0
(227) N =     4
 W = 720 , 3840 , 1280 , 720 ,
 H = 480 , 2160 , 720 , 480 ,
 Possible = 0
(228) N =     4
 W = 3840 , 1920 , 1280 , 720 ,
 H = 2160 , 1088 , 720 , 480 ,
 Possible = 0
(229) N =     4
 W = 1920 , 1920 , 1280 , 720 ,
 H = 1088 , 1088 , 720 , 480 ,
 Possible = 0
(230) N =     4
 W = 1280 , 1920 , 1280 , 720 ,
 H = 720 , 1088 , 720 , 480 ,
 Possible = 0
(231) N =     4
 W = 720 , 1920 , 1280 , 720 ,
 H = 480 , 1088 , 720 , 480 ,
 Possible = 0
(232) N =     4
 W = 3840 , 1280 , 1280 , 720 ,
 H = 2160 , 720 , 720 , 480 ,
 Possible = 0
(233) N =     4
 W = 1920 , 1280 , 1280 , 720 ,
 H = 1088 , 720 , 720 , 480 ,
 Possible = 0
(234) N =     4
 W = 1280 , 1280 , 1280 , 720 ,
 H = 720 , 720 , 720 , 480 ,
 Possible = 0
(235) N =     4
 W = 720 , 1280 , 1280 , 720 ,
 H = 480 , 720 , 720 , 480 ,
 Possible = 0
(236) N =     4
 W = 3840 , 720 , 1280 , 720 ,
 H = 2160 , 480 , 720 , 480 ,
 Possible = 0
(237) N =     4
 W = 1920 , 720 , 1280 , 720 ,
 H = 1088 , 480 , 720 , 480 ,
 Possible = 0
(238) N =     4
 W = 1280 , 720 , 1280 , 720 ,
 H = 720 , 480 , 720 , 480 ,
 Possible = 0
(239) N =     4
 W = 720 , 720 , 1280 , 720 ,
 H = 480 , 480 , 720 , 480 ,
 Possible = 0
(240) N =     4
 W = 3840 , 3840 , 720 , 720 ,
 H = 2160 , 2160 , 480 , 480 ,
 Possible = 0
(241) N =     4
 W = 1920 , 3840 , 720 , 720 ,
 H = 1088 , 2160 , 480 , 480 ,
 Possible = 0
(242) N =     4
 W = 1280 , 3840 , 720 , 720 ,
 H = 720 , 2160 , 480 , 480 ,
 Possible = 0
(243) N =     4
 W = 720 , 3840 , 720 , 720 ,
 H = 480 , 2160 , 480 , 480 ,
 Possible = 0
(244) N =     4
 W = 3840 , 1920 , 720 , 720 ,
 H = 2160 , 1088 , 480 , 480 ,
 Possible = 0
(245) N =     4
 W = 1920 , 1920 , 720 , 720 ,
 H = 1088 , 1088 , 480 , 480 ,
 Possible = 0
(246) N =     4
 W = 1280 , 1920 , 720 , 720 ,
 H = 720 , 1088 , 480 , 480 ,
 Possible = 0
(247) N =     4
 W = 720 , 1920 , 720 , 720 ,
 H = 480 , 1088 , 480 , 480 ,
 Possible = 0
(248) N =     4
 W = 3840 , 1280 , 720 , 720 ,
 H = 2160 , 720 , 480 , 480 ,
 Possible = 0
(249) N =     4
 W = 1920 , 1280 , 720 , 720 ,
 H = 1088 , 720 , 480 , 480 ,
 Possible = 0
(250) N =     4
 W = 1280 , 1280 , 720 , 720 ,
 H = 720 , 720 , 480 , 480 ,
 Possible = 0
(251) N =     4
 W = 720 , 1280 , 720 , 720 ,
 H = 480 , 720 , 480 , 480 ,
 Possible = 0
(252) N =     4
 W = 3840 , 720 , 720 , 720 ,
 H = 2160 , 480 , 480 , 480 ,
 Possible = 0
(253) N =     4
 W = 1920 , 720 , 720 , 720 ,
 H = 1088 , 480 , 480 , 480 ,
 Possible = 0
(254) N =     4
 W = 1280 , 720 , 720 , 720 ,
 H = 720 , 480 , 480 , 480 ,
 Possible = 0
(255) N =     4
 W = 720 , 720 , 720 , 720 ,
 H = 480 , 480 , 480 , 480 ,
 Possible = 0
 Find nInstances = 3 AND decoders = 1280, 1280, 1280
 N =     3
 W = 1280 , 3840 , 3840 ,
 H = 720 , 2160 , 2160 ,
 Possible = 0

C:\Works\Windows\misc\practise\NwayCache\Debug>